{
    "Actor": {
	"types": [ "Player Character", "Supporting Character", "Non-Player Character", "Asset", "House" ],
	"templates": {
	    "background": {
		"details": {
		    "biography": {
			"value": ""
		    }
		}
	    },
	    "resources": {
		"resources": {
		    "determination": {
			"min": 0,
			"value": 0,
			"max": 3
		    },
		    "xp": {
			"min": 0,
			"value": 0
		    }
		}
	    },
	    "asset": {
		"quality": {
		    "min": 0,
                    "value": 0,
                    "max": 5
		}
	    },
	    "common": {
		"House": null,
		"Role": null,
		"Faction": null,
		"Ambition": null,
		"Skills": {
		    "Battle": {
			"value": 4,
			"min": 4,
			"max": 8,
			"focuses": null
		    },
		    "Communicate": {
			"value": 4,
			"min": 4,
			"max": 8,
			"focuses": null
		    },
		    "Discipline": {
			"value": 4,
			"min": 4,
			"max": 8,
			"focuses": null
		    },
		    "Move": {
			"value": 4,
			"min": 4,
			"max": 8,
			"focuses": null
		    },
		    "Understand": {
			"value": 4,
			"min": 4,
			"max": 8,
			"focuses": null
		    }
		},
		"Drives": {
		    "Duty": {
			"value": 4,
			"min": 4,
			"max": 8,
			"statement": null
		    },
		    "Faith": {
			"value": 4,
			"min": 4,
			"max": 8,
			"statement": null
		    },
		    "Justice": {
			"value": 4,
			"min": 4,
			"max": 8,
			"statement": null
		    },
		    "Power": {
			"value": 4,
			"min": 4,
			"max": 8,
			"statement": null
		    },
		    "Truth": {
			"value": 4,
			"min": 4,
			"max": 8,
			"statement": null
		    }
		}
	    },
	    "house": {
		"homeworld": "",
		"house_type": "",
		"traits": "",
		"motto": "",
		"domains": [],
		"Roles": {
		    "Ruler": {
			"name": ""
		    },
		    "Consort": {
			"name": ""
		    },
		    "Heir": {
			"name": ""
		    },
		    "Advisor": {
			"name": ""
		    },
		    "Chief Physician": {
			"name": ""
		    },
		    "Councillor": {
			"name": ""
		    },
		    "Envoy": {
			"name": ""
		    },
		    "Marshall": {
			"name": ""
		    },
		    "Scholar": {
			"name": ""
		    },
		    "Spymaster": {
			"name": ""
		    },
		    "Swordmaster": {
			"name": ""
		    },
		    "Treasurer": {
			"name": ""
		    },
		    "Warmaster": {
			"name": ""
		    }
		},
		"enemies": []
	    }
	},
	"Player Character": {
	    "templates": ["common", "background", "resources"]
	},
	"Supporting Character": {
	    "templates": ["common"]
	},
	"Non-Player Character": {
	    "templates": ["common", "background"]
	},
	"Asset": {
	    "templates": ["asset"]
	},
	"House": {
	    "templates": ["house"]
	}
    },
    "Item": {
	"types": ["talent", "domain", "enemy", "trait", "asset"],
	"talent": {
	    "name": "",
	    "description": "",
	    "rule": "",
	    "faction": null,
	    "skill": null,
	    "forSkill": false,
	    "drive": null,
	    "forDrive": false,
	    "note": null
	},
	"domain": {
	    "primary": false,
	    "area": null,
	    "field": null,
	    "details": null
	},
	"enemy": {
	    "type": null,
	    "hatered": 1,
	    "reason": null,
	    "notes": null
	},
	"trait": {
	    "temporary": false
	},
	"asset": {
	    "temporary": false,
	    "quality": 0,
	    "actor": null
	}
    }
}
